Sound pack downloaded from Freesound
----------------------------------------

"Upright piano multisamples"

This pack of sounds contains sounds by the following user:
 - beskhu ( https://freesound.org/people/beskhu/ )

You can find this pack online at: https://freesound.org/people/beskhu/packs/17088/


Pack description
----------------

This recording could have been better, but anyway, i uploaded it... Hoping it could be helpful.


Licenses in this pack (see below for individual sound licenses)
---------------------------------------------------------------

Creative Commons 0: http://creativecommons.org/publicdomain/zero/1.0/


Sounds in this pack
-------------------

  * 277147__beskhu__59-b3.aiff
    * url: https://freesound.org/s/277147/
    * license: Creative Commons 0
  * 277146__beskhu__60-c4.aiff
    * url: https://freesound.org/s/277146/
    * license: Creative Commons 0
  * 277145__beskhu__61-c-4.aiff
    * url: https://freesound.org/s/277145/
    * license: Creative Commons 0
  * 277144__beskhu__62-d4.aiff
    * url: https://freesound.org/s/277144/
    * license: Creative Commons 0
  * 277143__beskhu__63-d-4.aiff
    * url: https://freesound.org/s/277143/
    * license: Creative Commons 0
  * 277142__beskhu__64-e4.aiff
    * url: https://freesound.org/s/277142/
    * license: Creative Commons 0
  * 277141__beskhu__65-f4.aiff
    * url: https://freesound.org/s/277141/
    * license: Creative Commons 0
  * 277140__beskhu__66-f-4.aiff
    * url: https://freesound.org/s/277140/
    * license: Creative Commons 0
  * 277139__beskhu__67-g4.aiff
    * url: https://freesound.org/s/277139/
    * license: Creative Commons 0
  * 277138__beskhu__68-g-4.aiff
    * url: https://freesound.org/s/277138/
    * license: Creative Commons 0
  * 277137__beskhu__58-a-3.aiff
    * url: https://freesound.org/s/277137/
    * license: Creative Commons 0
  * 277136__beskhu__57-a3.aiff
    * url: https://freesound.org/s/277136/
    * license: Creative Commons 0
  * 277135__beskhu__56-g-3.aiff
    * url: https://freesound.org/s/277135/
    * license: Creative Commons 0
  * 277134__beskhu__55-g3.aiff
    * url: https://freesound.org/s/277134/
    * license: Creative Commons 0
  * 277133__beskhu__54-f-3.aiff
    * url: https://freesound.org/s/277133/
    * license: Creative Commons 0
  * 277132__beskhu__53-f3.aiff
    * url: https://freesound.org/s/277132/
    * license: Creative Commons 0
  * 277131__beskhu__52-e3.aiff
    * url: https://freesound.org/s/277131/
    * license: Creative Commons 0
  * 277130__beskhu__51-d-3.aiff
    * url: https://freesound.org/s/277130/
    * license: Creative Commons 0
  * 277129__beskhu__50-d3.aiff
    * url: https://freesound.org/s/277129/
    * license: Creative Commons 0
  * 277128__beskhu__49-c-3.aiff
    * url: https://freesound.org/s/277128/
    * license: Creative Commons 0
  * 277127__beskhu__87-d-6.aiff
    * url: https://freesound.org/s/277127/
    * license: Creative Commons 0
  * 277126__beskhu__88-e6.aiff
    * url: https://freesound.org/s/277126/
    * license: Creative Commons 0
  * 277125__beskhu__81-a5.aiff
    * url: https://freesound.org/s/277125/
    * license: Creative Commons 0
  * 277124__beskhu__82-a-5.aiff
    * url: https://freesound.org/s/277124/
    * license: Creative Commons 0
  * 277123__beskhu__79-g5.aiff
    * url: https://freesound.org/s/277123/
    * license: Creative Commons 0
  * 277122__beskhu__80-g-5.aiff
    * url: https://freesound.org/s/277122/
    * license: Creative Commons 0
  * 277121__beskhu__85-c-6.aiff
    * url: https://freesound.org/s/277121/
    * license: Creative Commons 0
  * 277120__beskhu__86-d6.aiff
    * url: https://freesound.org/s/277120/
    * license: Creative Commons 0
  * 277119__beskhu__83-b5.aiff
    * url: https://freesound.org/s/277119/
    * license: Creative Commons 0
  * 277118__beskhu__84-c6.aiff
    * url: https://freesound.org/s/277118/
    * license: Creative Commons 0
  * 277117__beskhu__78-f-5.aiff
    * url: https://freesound.org/s/277117/
    * license: Creative Commons 0
  * 277116__beskhu__77-f5.aiff
    * url: https://freesound.org/s/277116/
    * license: Creative Commons 0
  * 277115__beskhu__70-a-4.aiff
    * url: https://freesound.org/s/277115/
    * license: Creative Commons 0
  * 277114__beskhu__69-a4.aiff
    * url: https://freesound.org/s/277114/
    * license: Creative Commons 0
  * 277113__beskhu__72-c5.aiff
    * url: https://freesound.org/s/277113/
    * license: Creative Commons 0
  * 277112__beskhu__71-b4.aiff
    * url: https://freesound.org/s/277112/
    * license: Creative Commons 0
  * 277111__beskhu__74-d5.aiff
    * url: https://freesound.org/s/277111/
    * license: Creative Commons 0
  * 277110__beskhu__73-c-5.aiff
    * url: https://freesound.org/s/277110/
    * license: Creative Commons 0
  * 277109__beskhu__76-e5.aiff
    * url: https://freesound.org/s/277109/
    * license: Creative Commons 0
  * 277108__beskhu__75-d-5.aiff
    * url: https://freesound.org/s/277108/
    * license: Creative Commons 0
  * 277107__beskhu__17-f0.aiff
    * url: https://freesound.org/s/277107/
    * license: Creative Commons 0
  * 277106__beskhu__18-f-0.aiff
    * url: https://freesound.org/s/277106/
    * license: Creative Commons 0
  * 277105__beskhu__13-c-0.aiff
    * url: https://freesound.org/s/277105/
    * license: Creative Commons 0
  * 277104__beskhu__14-d0.aiff
    * url: https://freesound.org/s/277104/
    * license: Creative Commons 0
  * 277103__beskhu__15-d-0.aiff
    * url: https://freesound.org/s/277103/
    * license: Creative Commons 0
  * 277102__beskhu__16-e0.aiff
    * url: https://freesound.org/s/277102/
    * license: Creative Commons 0
  * 277101__beskhu__09-a-1.aiff
    * url: https://freesound.org/s/277101/
    * license: Creative Commons 0
  * 277100__beskhu__10-a-1.aiff
    * url: https://freesound.org/s/277100/
    * license: Creative Commons 0
  * 277099__beskhu__11-b-1.aiff
    * url: https://freesound.org/s/277099/
    * license: Creative Commons 0
  * 277098__beskhu__12-c0.aiff
    * url: https://freesound.org/s/277098/
    * license: Creative Commons 0
  * 277097__beskhu__27-d-1.aiff
    * url: https://freesound.org/s/277097/
    * license: Creative Commons 0
  * 277096__beskhu__28-e1.aiff
    * url: https://freesound.org/s/277096/
    * license: Creative Commons 0
  * 277095__beskhu__23-b0.aiff
    * url: https://freesound.org/s/277095/
    * license: Creative Commons 0
  * 277094__beskhu__24-c1.aiff
    * url: https://freesound.org/s/277094/
    * license: Creative Commons 0
  * 277093__beskhu__25-c-1.aiff
    * url: https://freesound.org/s/277093/
    * license: Creative Commons 0
  * 277092__beskhu__26-d1.aiff
    * url: https://freesound.org/s/277092/
    * license: Creative Commons 0
  * 277091__beskhu__19-g0.aiff
    * url: https://freesound.org/s/277091/
    * license: Creative Commons 0
  * 277090__beskhu__20-g-0.aiff
    * url: https://freesound.org/s/277090/
    * license: Creative Commons 0
  * 277089__beskhu__21-a0.aiff
    * url: https://freesound.org/s/277089/
    * license: Creative Commons 0
  * 277088__beskhu__22-a-0.aiff
    * url: https://freesound.org/s/277088/
    * license: Creative Commons 0
  * 277087__beskhu__92-g-6.aiff
    * url: https://freesound.org/s/277087/
    * license: Creative Commons 0
  * 277086__beskhu__91-g6.aiff
    * url: https://freesound.org/s/277086/
    * license: Creative Commons 0
  * 277085__beskhu__90-f-6.aiff
    * url: https://freesound.org/s/277085/
    * license: Creative Commons 0
  * 277084__beskhu__89-f6.aiff
    * url: https://freesound.org/s/277084/
    * license: Creative Commons 0
  * 277083__beskhu__96-c7.aiff
    * url: https://freesound.org/s/277083/
    * license: Creative Commons 0
  * 277082__beskhu__95-b6.aiff
    * url: https://freesound.org/s/277082/
    * license: Creative Commons 0
  * 277081__beskhu__94-a-6.aiff
    * url: https://freesound.org/s/277081/
    * license: Creative Commons 0
  * 277080__beskhu__93-a6.aiff
    * url: https://freesound.org/s/277080/
    * license: Creative Commons 0
  * 277079__beskhu__45-a2.aiff
    * url: https://freesound.org/s/277079/
    * license: Creative Commons 0
  * 277078__beskhu__46-a-2.aiff
    * url: https://freesound.org/s/277078/
    * license: Creative Commons 0
  * 277077__beskhu__43-g2.aiff
    * url: https://freesound.org/s/277077/
    * license: Creative Commons 0
  * 277076__beskhu__44-g-2.aiff
    * url: https://freesound.org/s/277076/
    * license: Creative Commons 0
  * 277075__beskhu__41-f2.aiff
    * url: https://freesound.org/s/277075/
    * license: Creative Commons 0
  * 277074__beskhu__42-f-2.aiff
    * url: https://freesound.org/s/277074/
    * license: Creative Commons 0
  * 277073__beskhu__39-d-2.aiff
    * url: https://freesound.org/s/277073/
    * license: Creative Commons 0
  * 277072__beskhu__40-e2.aiff
    * url: https://freesound.org/s/277072/
    * license: Creative Commons 0
  * 277071__beskhu__47-b2.aiff
    * url: https://freesound.org/s/277071/
    * license: Creative Commons 0
  * 277070__beskhu__48-c3.aiff
    * url: https://freesound.org/s/277070/
    * license: Creative Commons 0
  * 277069__beskhu__34-a-1.aiff
    * url: https://freesound.org/s/277069/
    * license: Creative Commons 0
  * 277068__beskhu__33-a1.aiff
    * url: https://freesound.org/s/277068/
    * license: Creative Commons 0
  * 277067__beskhu__36-c2.aiff
    * url: https://freesound.org/s/277067/
    * license: Creative Commons 0
  * 277066__beskhu__35-b1.aiff
    * url: https://freesound.org/s/277066/
    * license: Creative Commons 0
  * 277065__beskhu__30-f-1.aiff
    * url: https://freesound.org/s/277065/
    * license: Creative Commons 0
  * 277064__beskhu__29-f1.aiff
    * url: https://freesound.org/s/277064/
    * license: Creative Commons 0
  * 277063__beskhu__32-g-1.aiff
    * url: https://freesound.org/s/277063/
    * license: Creative Commons 0
  * 277062__beskhu__31-g1.aiff
    * url: https://freesound.org/s/277062/
    * license: Creative Commons 0
  * 277061__beskhu__38-d2.aiff
    * url: https://freesound.org/s/277061/
    * license: Creative Commons 0
  * 277060__beskhu__37-c-2.aiff
    * url: https://freesound.org/s/277060/
    * license: Creative Commons 0


